<?xml version="1.0" encoding="UTF-8" standalone="no"?>
<!-- Created with Inkscape (http://www.inkscape.org/) -->

<svg
   xmlns:dc="http://purl.org/dc/elements/1.1/"
   xmlns:cc="http://creativecommons.org/ns#"
   xmlns:rdf="http://www.w3.org/1999/02/22-rdf-syntax-ns#"
   xmlns:svg="http://www.w3.org/2000/svg"
   xmlns="http://www.w3.org/2000/svg"
   xmlns:sodipodi="http://sodipodi.sourceforge.net/DTD/sodipodi-0.dtd"
   xmlns:inkscape="http://www.inkscape.org/namespaces/inkscape"
   width="210mm"
   height="297mm"
   viewBox="0 0 210 297"
   version="1.1"
   id="svg10028"
   sodipodi:docname="ballot1.svg"
   inkscape:version="0.92.4 5da689c313, 2019-01-14">
  <defs
     id="defs10022" />
  <sodipodi:namedview
     id="base"
     pagecolor="#ffffff"
     bordercolor="#666666"
     borderopacity="1.0"
     inkscape:pageopacity="0.0"
     inkscape:pageshadow="2"
     inkscape:zoom="1"
     inkscape:cx="218.33264"
     inkscape:cy="871.24164"
     inkscape:document-units="mm"
     inkscape:current-layer="layer1"
     showgrid="false"
     inkscape:snap-global="false"
     inkscape:window-width="1362"
     inkscape:window-height="722"
     inkscape:window-x="2"
     inkscape:window-y="25"
     inkscape:window-maximized="1" />
  <metadata
     id="metadata10025">
    <rdf:RDF>
      <cc:Work
         rdf:about="">
        <dc:format>image/svg+xml</dc:format>
        <dc:type
           rdf:resource="http://purl.org/dc/dcmitype/StillImage" />
      </cc:Work>
    </rdf:RDF>
  </metadata>
  <g
     inkscape:label="Layer 1"
     inkscape:groupmode="layer"
     id="layer1"
     style="display:inline">
    <g
       id="g13243">
      <rect
         transform="rotate(10)"
         y="16.74309"
         x="29.438557"
         height="93.268433"
         width="63.304428"
         id="rect10581"
         style="opacity:0.98;fill:#ffeeaa;stroke:#ffeeaa;stroke-width:1.35087681;stroke-miterlimit:4;stroke-dasharray:none" />
      <rect
         transform="rotate(10)"
         y="35.206627"
         x="34.423042"
         height="12.964583"
         width="12.964583"
         id="rect10589"
         style="opacity:0.98;fill:#ffffff;stroke:#ffffff;stroke-width:0.76499999;stroke-miterlimit:4;stroke-dasharray:none" />
      <rect
         transform="rotate(10)"
         y="53.066006"
         x="34.55534"
         height="12.964583"
         width="12.964583"
         id="rect10589-7"
         style="display:inline;opacity:0.98;fill:#ffffff;stroke:#ffffff;stroke-width:0.76499999;stroke-miterlimit:4;stroke-dasharray:none" />
      <rect
         transform="rotate(10)"
         y="71.32225"
         x="34.555336"
         height="12.964583"
         width="12.964583"
         id="rect10589-7-5"
         style="display:inline;opacity:0.98;fill:#ffffff;stroke:#ffffff;stroke-width:0.76499999;stroke-miterlimit:4;stroke-dasharray:none" />
      <rect
         transform="rotate(10)"
         y="89.313919"
         x="34.290749"
         height="12.964583"
         width="12.964583"
         id="rect10589-7-5-9"
         style="display:inline;opacity:0.98;fill:#ffffff;stroke:#ffffff;stroke-width:0.76499999;stroke-miterlimit:4;stroke-dasharray:none" />
      <path
         inkscape:connector-curvature="0"
         id="path10650"
         d="m 44.144904,52.855383 8.380687,-3.937514 5.400892,7.017409 9.132464,-4.238175 5.019541,5.217283 8.195473,-2.88712"
         style="fill:none;stroke:#000000;stroke-width:0.98811102;stroke-linecap:butt;stroke-linejoin:miter;stroke-miterlimit:4;stroke-dasharray:none;stroke-opacity:1;opacity:0.98" />
      <path
         inkscape:connector-curvature="0"
         id="path10688"
         d="m 39.607387,69.18457 10.505302,-3.306988 5.562659,8.051077 7.006585,-4.30608 5.081639,4.526686 9.046993,-3.373039"
         style="fill:none;stroke:#000000;stroke-width:0.95181835;stroke-linecap:butt;stroke-linejoin:miter;stroke-miterlimit:4;stroke-dasharray:none;stroke-opacity:1;opacity:0.98" />
      <path
         inkscape:connector-curvature="0"
         id="path10705"
         d="m 38.233239,83.506754 9.938888,6.637677 9.952136,-3.130353 7.243657,7.383731 5.184921,-2.749645"
         style="fill:none;stroke:#000000;stroke-width:0.98069543;stroke-linecap:butt;stroke-linejoin:miter;stroke-miterlimit:4;stroke-dasharray:none;stroke-opacity:1;opacity:0.98" />
      <path
         inkscape:connector-curvature="0"
         id="path10707"
         d="m 34.560906,105.17731 11.494251,-3.74442 4.345622,7.41183 12.160439,-4.85113 5.775956,7.31426"
         style="fill:none;stroke:#000000;stroke-width:0.92408198;stroke-linecap:butt;stroke-linejoin:miter;stroke-miterlimit:4;stroke-dasharray:none;stroke-opacity:1;opacity:0.98" />
      <g
         style="opacity:0.98"
         transform="rotate(45,33.363171,185.09768)"
         id="g10736">
        <rect
           style="opacity:0.98000004;fill:#ff0000;stroke:#ff0000;stroke-width:0.86500001;stroke-miterlimit:4;stroke-dasharray:none"
           id="rect10730"
           width="7.4835467"
           height="1.8708867"
           x="-68.474457"
           y="88.583221" />
        <rect
           style="opacity:0.98000004;fill:#ff0000;stroke:#ff0000;stroke-width:0.86500001;stroke-miterlimit:4;stroke-dasharray:none"
           id="rect10732"
           width="1.8708867"
           height="12.347852"
           x="-62.768246"
           y="78.012711" />
      </g>
    </g>
  </g>
</svg>
