<?xml version="1.0" encoding="UTF-8" standalone="no"?>
<!-- Created with Inkscape (http://www.inkscape.org/) -->

<svg
   xmlns:dc="http://purl.org/dc/elements/1.1/"
   xmlns:cc="http://creativecommons.org/ns#"
   xmlns:rdf="http://www.w3.org/1999/02/22-rdf-syntax-ns#"
   xmlns:svg="http://www.w3.org/2000/svg"
   xmlns="http://www.w3.org/2000/svg"
   xmlns:xlink="http://www.w3.org/1999/xlink"
   xmlns:sodipodi="http://sodipodi.sourceforge.net/DTD/sodipodi-0.dtd"
   xmlns:inkscape="http://www.inkscape.org/namespaces/inkscape"
   width="210mm"
   height="297mm"
   viewBox="0 0 210 297"
   version="1.1"
   id="svg8"
   inkscape:export-filename="/home/edwargix/tmp/computer.png"
   inkscape:export-xdpi="24.253363"
   inkscape:export-ydpi="24.253363"
   inkscape:version="0.92.4 5da689c313, 2019-01-14"
   sodipodi:docname="computer.svg">
  <defs
     id="defs2">
    <linearGradient
       inkscape:collect="always"
       id="linearGradient4602">
      <stop
         style="stop-color:#1a1a1a;stop-opacity:1;"
         offset="0"
         id="stop4598" />
      <stop
         style="stop-color:#1a1a1a;stop-opacity:0;"
         offset="1"
         id="stop4600" />
    </linearGradient>
    <linearGradient
       inkscape:collect="always"
       xlink:href="#linearGradient4602"
       id="linearGradient4604"
       x1="114.14881"
       y1="66.434525"
       x2="11.746991"
       y2="62.094795"
       gradientUnits="userSpaceOnUse"
       gradientTransform="matrix(1.3484848,0,0,1.0384616,-22.05319,-6.7187261)" />
  </defs>
  <sodipodi:namedview
     id="base"
     pagecolor="#ffffff"
     bordercolor="#666666"
     borderopacity="1.0"
     inkscape:pageopacity="0.0"
     inkscape:pageshadow="2"
     inkscape:zoom="0.35"
     inkscape:cx="-90"
     inkscape:cy="778.57143"
     inkscape:document-units="mm"
     inkscape:current-layer="layer1"
     showgrid="false"
     inkscape:snap-global="false"
     inkscape:window-width="1362"
     inkscape:window-height="722"
     inkscape:window-x="2"
     inkscape:window-y="25"
     inkscape:window-maximized="1" />
  <metadata
     id="metadata5">
    <rdf:RDF>
      <cc:Work
         rdf:about="">
        <dc:format>image/svg+xml</dc:format>
        <dc:type
           rdf:resource="http://purl.org/dc/dcmitype/StillImage" />
        <dc:title></dc:title>
      </cc:Work>
    </rdf:RDF>
  </metadata>
  <g
     inkscape:label="Layer 1"
     inkscape:groupmode="layer"
     id="layer1">
    <g
       id="g4629"
       transform="translate(5.2916667,34.017857)"
       inkscape:export-xdpi="24.253363"
       inkscape:export-ydpi="24.253363">
      <rect
         y="33.172619"
         x="25.702381"
         height="59.720234"
         width="76.351196"
         id="rect4580"
         style="opacity:1;fill:#cccccc;stroke-width:1.5;stroke-miterlimit:4;stroke-dasharray:none" />
      <rect
         y="37.935123"
         x="29.93572"
         height="40.82143"
         width="67.279762"
         id="rect4588"
         style="opacity:0.98000004;fill:url(#linearGradient4604);fill-opacity:1;stroke-width:1.77504551;stroke-miterlimit:4;stroke-dasharray:none" />
      <path
         inkscape:connector-curvature="0"
         id="path4624"
         d="M 36.285712,86.089294 H 91.470237"
         style="fill:#000000;stroke:#000000;stroke-width:0.96499997;stroke-linecap:butt;stroke-linejoin:miter;stroke-miterlimit:4;stroke-dasharray:none;stroke-opacity:1" />
    </g>
  </g>
</svg>
